Bella Beat Analysis
…
#Checking for NA values
activityNA = colSums(is.na(activitylog))
sleepNA = colSums(is.na(sleeplog))

#There are Rows with Missing Data in Activity DF labeled as zero, so these rows need to be removed. The calories column has data even when some corresponding columns do not have any data. Some of the individuals do not have as many data points as others. Unrepresentative participants will be removed. 

activitylog = activitylog[,-which(colnames(activitylog) == "LoggedActivitiesDistance")] #LoggedActivitiesDistance has No values, hence removed

zero_count = activitylog %>% group_by(Id) %>% summarize(zero_count = sum(TotalSteps == 0))
#Zero_Count holds the IDs and the total 0s each Id has for the TotalSteps Column 
zero_count

## # A tibble: 33 × 2
##            Id zero_count
##         <dbl>      <int>
##  1 1503960366          1
##  2 1624580081          0
##  3 1644430081          0
##  4 1844505072         10
##  5 1927972279         14
##  6 2022484408          0
##  7 2026352035          0
##  8 2320127002          0
##  9 2347167796          0
## 10 2873212765          0
## # ℹ 23 more rows
…
